.............
----------------------------------------------------------------------
Ran 13 tests in 0.004s

OK
Name             Stmts   Miss Branch BrPart  Cover   Missing
------------------------------------------------------------
Collatz.py          25      0     10      0   100%
TestCollatz.py      60      0      0      0   100%
------------------------------------------------------------
TOTAL               85      0     10      0   100%
