1 10 20
100 200 125
201 210 89
900 1000 174
1 1 1
10 1 20
70 71 103
29 3902 238
9302 392 262
3421 439 217
342 2048 182
43 43 30
108 208 125
29 20 112
7 29 112
30 40 107
41 61 113
1001 2001 182
432 43 144
1 9999 262
88 70 116
55 2 113
3 8 17
23 11 21
8 8 4
78 43 116
8 3 17
88 1 116
23 10 21
8 44 112
8 8 4
44 21 112
9 9 20
52 231 128
7810 4248 262
159 533 144
987 12345 268
7453 1252 262
531 977 179
24 111 119
1 2 2
67 69 28
100 101 26
2932 1029 217
900000 999999 507
1 999999 525
100 122 114
48325 4324 324
3485 8907 262
8797 178053 383
38249 48394 314
71 72 103
438 960 179
908 3820 238
8693 6849 257
84239 9504 351
123 456 144
234 789 171
345 89 144
3 2 8
94081 5832 351
4791 4854 166
241 9786 262
46328 975 324
216 705 171
146 7950 262
1254 5790 238
235 8954 262
2734 5489 238
234 6489 262
2397 439 183
100 10000 262
2 2000 182
2 3999 238
9 999 179
2 31 112
3 59 113
2 28 112
329 38 144
291 9650 262
8129 4805 262
3934 4389 215
28 294 128
2497 12 209
4289 428 238
428 1092 179
1982 48291 324
48 58 113
579 230 144
1792 3829 238
217 3289 217
218 389 144
1273 3289 217
1237 59 182
5793 21084 279
272 1283 182
586934 455830 470
5893 18294 279
1328 3829 238
218 3284 217
4839 4289 215
385 29 144
4892 4 238
