1 10 20
100 200 125
201 210 89
900 1000 174
250 250 110
1 999 179
10 1 20
1 2 2
2 4 8
4 16 20
25 5 24
5 500 144
5 10 20
1 100000 351
10 100 119
10 1000 179
10 10000 262
11 11 15
111 11 119
11111 11112 131
1212 1212 45
1234 1234 133
54321 12345 340
102030 102031 116
12222 21111 279
30 33 107
45 54 113
20 23 16
75 30 116
51 1 112
80 2342 183
2414 8782 262
1247 9889 262
274 99 128
13 4899 238
4824 2942 238
1241 142 182
4295 241 238
421 45892 324
55698 3 340
839 2845 209
59 3845 238
543 43 144
4896 253 238
5938 234 238
5934 53 238
34 43 110
5 80 116
4 8 17
243 5 128
90 3 116
902 3 179
29843 92483 351
34 2 112
439 2 144
35 54 113
5832 3 238
9 232 128
2 3 8
3 5 8
843 8934 262
69 96 116
96 69 116
1000 1001 143
234 432 144
1 25 24
67 85 116
34 456 144
123 456 144
789 1011 179
32 453 144
6347 9 262
984 34892 311
3 45 112
3 234 128
54 5 113
5454 22 238
234 543 144
9 234 128
88 274 128
24 5842 238
8 243 128
9893 13 262
1347 198 182
97868 13 351
791 87439 351
9 34 112
543 65 144
38 34 22
989 4555 238
1334 31435 308
5 34 112
5 6 9
6 5 9
7 7 17
3429 32 217
58 9876 262
78 98 119
787 4545 238
999998 999999 259
78547 87245 338
7 13 20
49 7 112
1 1 1
1 999999 525
999999 1000 525
500000 999599 525
404040 909090 525
