1 10 20
100 200 125
201 210 89
900 1000 174
1948244 1958746 490
1603487 1962352 557
1240145 1756369 557
1742010 1949902 521
1017068 1126242 528
1676863 1678272 358
1507607 1957542 557
1271487 1584723 531
1805384 1893878 521
1069625 1330102 528
1367764 1830919 557
1075916 1449888 528
1382049 1632662 531
1904803 1998520 534
1864020 1915183 521
1491251 1718373 531
1509914 1864307 557
1028497 1587388 531
1859745 1866275 415
1515412 1608575 531
1899385 1944226 459
1131887 1477365 523
1498115 1830681 557
1784080 1919712 521
1956981 1969956 428
1650195 1836231 557
1350327 1604495 531
1186887 1303619 523
1167279 1269486 523
1466883 1804439 557
1137347 1905401 557
1583201 1846018 557
1500538 1734938 557
1742231 1920652 521
1912771 1970473 490
1191993 1324151 523
1752506 1781524 451
1558964 1849908 557
1828428 1979563 521
1689669 1882645 557
1522837 1991368 557
1652674 1695424 526
1881401 1889004 521
1524883 1836964 557
1804484 1888118 521
1159889 1716868 531
1543197 1658984 531
1534714 1943789 557
1588324 1974506 557
1982235 1986956 384
1233543 1383479 523
1026194 1747762 557
1762648 1888449 521
1687616 1693898 526
1731567 1936765 521
1827328 1857664 477
1321866 1392704 505
1247041 1633051 531
1478914 1727714 557
1517399 1631681 531
1840260 1952636 521
1432924 1858062 557
1456738 1637297 531
1669564 1745904 557
1511711 1936692 557
1179263 1753824 557
1948672 1981049 521
1182346 1253693 510
1675989 1919621 557
1686225 1803413 557
1760749 1993448 534
1274337 1316164 492
1469993 1723404 531
1494245 1978093 557
1690754 1726900 557
1254695 1498605 523
1906813 1958019 490
1813026 1971353 521
1526332 1740401 557
1702339 1985849 557
1854509 1970952 521
1673660 1910866 557
1321320 1766845 557
1489221 1539203 531
1081766 1274233 528
1491065 1684891 531
1126618 1476361 523
1889828 1991908 521
1643644 1986608 557
1540772 1546612 394
1876043 1960955 521
1953162 1971444 490
1671266 1741550 557
1609154 1705319 526
1778764 1842873 495
1854457 1880336 508
1495881 1681049 531
1010888 1395525 528
1120797 1426421 528
1571137 1716271 526
1876268 1973616 521
1548752 1694184 531
1654482 1889893 557
1234277 1461134 523
1759358 1820822 495
1155557 1953156 557
1674432 1721984 526
1012754 1314122 528
1953324 1989592 521
1141483 1957884 557
1880122 1942861 521
1738348 1767961 451
1138345 1261984 523
1783102 1966237 521
1426316 1492820 456
1103541 1171030 528
1264400 1511318 531
1770122 1794862 495
1324691 1993280 557
1292081 1656999 531
1143309 1770477 557
1427124 1495347 456
1101617 1128702 528
1397485 1721517 531
1240493 1637079 531
1566591 1935293 557
1219312 1487177 523
1584074 1908033 557
1570217 1661590 513
1821115 1889213 521
1561548 1634132 531
1197932 1410784 523
1737804 1877682 495
1657645 1963429 557
1952871 1955097 490
1851886 1940291 521
1502653 1545909 487
1579237 1584315 420
1703555 1857137 557
1857892 1985208 521
1147105 1461316 523
1936910 1971940 490
1865836 1979441 521
1734313 1741164 495
1292961 1702726 531
1505690 1843744 557
1643819 1676870 526
1905643 1945361 459
1650042 1893258 557
1186733 1946470 557
1894302 1920731 459
1960324 1991621 521
1594505 1743789 557
1439669 1576771 531
1778693 1929281 521
1961258 1977134 446
1942217 1996744 534
1448795 1751697 557
1410347 1985218 557
1685383 1696865 526
1799811 1990259 521
1153957 1986383 557
1973294 1987744 521
1750048 1974302 521
1267069 1829715 557
1325417 1886402 557
1991324 1998779 534
1634158 1669943 451
1183875 1229923 466
1701918 1968739 557
1364302 1527440 531
1456962 1943246 557
1219314 1691542 531
1885235 1921681 459
1538978 1606939 531
1052381 1790843 557
1633763 1877745 557
1336021 1853378 557
1767008 1990392 521
1044255 1159299 528
1728790 1849558 495
1518294 1531955 425
1195909 1915651 557
1240847 1698959 531
1136792 1765714 557
1299312 1348099 505
1103208 1446172 528
1620357 1623939 407
1252607 1278297 523
1760122 1862550 495
1988841 1991980 428
1980070 1999396 534
1781788 1880788 508
1947426 1950763 397
1949270 1967362 490
1418726 1519640 531
