................
----------------------------------------------------------------------
Ran 16 tests in 10.835s

OK
Name             Stmts   Miss Branch BrPart  Cover   Missing
------------------------------------------------------------
Collatz.py          42      1     16      1    97%   68
TestCollatz.py      74      0      0      0   100%
------------------------------------------------------------
TOTAL              116      1     16      1    98%
