1 10 20
100 200 125
201 210 89
900 1000 174
1 10 20
100 200 125
201 210 89
900 1000 174
1 1 1
2 2 2
3 3 8
4 4 3
5 5 6
6 6 9
7 7 17
8 8 4
9 9 20
10 10 7
900000 999999 507
900000 999999 507
1 2 2
1 2 2
90 99 119
90 99 119
100000 100000 129
100000 100001 129
100000 100001 129
13 17 18
13 17 18
13 13 10
17 17 13
12309 45789 324
1234 5678 238
1234 5678 238
300000 302000 371
300000 302000 371
444444 444555 263
444444 444555 263
97 12378 268
97 12378 268
809 908 179
809 908 179
450 550 142
450 550 142
999 1000 112
999 1000 112
12 10000 262
12 10000 262
10000 100000 351
10000 100000 351
1111 1111 32
2222 2222 33
3333 3333 31
4444 4444 34
5555 5555 130
6666 6666 32
7777 7777 84
8888 8888 35
9999 9999 92
10000 10000 30
2 4 8
2 4 8
2 6 9
2 6 9
2 8 17
2 8 17
2 10 20
2 10 20
809809 908908 525
809809 908908 525
6700 6710 138
1 111111 354
1 111111 354
102938 583748 470
102938 583748 470
506 507 111
507 508 49
508 509 49
509 510 49
510 511 62
511 512 62
512 513 36
513 514 124
514 515 124
9800 10800 255
800000 800000 132
1 11 20
1 11 20
2 22 21
2 22 21
3 33 112
3 33 112
4 44 112
4 44 112
5 55 113
5 55 113
6 66 113
6 66 113
7 77 116
7 77 116
8 88 116
8 88 116
9 99 119
9 99 119
120 270 128
120 270 128
180 360 144
180 360 144
1080 1440 182
1080 1440 182
240 720 171
720 720 21
240 240 22
1080 1081 138
1080 1081 138
